Grammar

    0 $accept: program $end

    1 program: declaration_list

    2 declaration_list: declaration_list declaration
    3                 | declaration

    4 declaration: var_declaration
    5            | fun_declaration

    6 var_declaration: type_specifier ID S_COLON
    7                | type_specifier ID L_BRACK NUM R_BRACK S_COLON

    8 type_specifier: INT
    9               | VOID

   10 fun_declaration: type_specifier ID L_PAR params R_PAR compound_stmt

   11 params: param_list
   12       | VOID

   13 param_list: param_list COLON param
   14           | param

   15 param: type_specifier ID
   16      | type_specifier ID L_BRACK R_BRACK

   17 compound_stmt: L_BRACE local_declarations statement_list R_BRACE

   18 local_declarations: local_declarations var_declaration
   19                   | %empty

   20 statement_list: statement_list statement
   21               | %empty

   22 statement: expression_stmt
   23          | compound_stmt
   24          | selection_stmt
   25          | iteration_stmt
   26          | return_stmt

   27 expression_stmt: expression S_COLON
   28                | S_COLON

   29 selection_stmt: IF L_PAR expression R_PAR statement
   30               | IF L_PAR expression R_PAR statement ELSE statement

   31 iteration_stmt: WHILE L_PAR expression R_PAR statement

   32 return_stmt: RETURN S_COLON
   33            | RETURN expression S_COLON

   34 expression: var ASSIGN_OP expression
   35           | logical_or_expression

   36 var: ID
   37    | ID L_BRACK expression R_BRACK

   38 logical_or_expression: logical_or_expression OR_OP logical_and_expression
   39                      | logical_and_expression

   40 logical_and_expression: logical_and_expression AND_OP compare_expression
   41                       | compare_expression

   42 compare_expression: additive_expression relop additive_expression
   43                   | additive_expression

   44 relop: LE_OP
   45      | L_OP
   46      | G_OP
   47      | GE_OP
   48      | EQ_OP
   49      | NE_OP

   50 additive_expression: additive_expression addop term
   51                    | term

   52 addop: ADD_OP
   53      | SUB_OP

   54 term: term mulop factor
   55     | factor

   56 mulop: MUL_OP
   57      | DIV_OP

   58 factor: unop factor
   59       | L_PAR expression R_PAR
   60       | var
   61       | call
   62       | NUM

   63 unop: NEG_OP
   64     | SUB_OP

   65 call: ID L_PAR args R_PAR

   66 args: arg_list
   67     | %empty

   68 arg_list: arg_list COLON expression
   69         | expression


Terminals, with rules where they appear

$end (0) 0
error (256)
ID (258) 6 7 10 15 16 36 37 65
INT (259) 8
VOID (260) 9 12
ADD_OP (261) 52
MUL_OP (262) 56
DIV_OP (263) 57
SUB_OP (264) 53 64
LE_OP (265) 44
GE_OP (266) 47
EQ_OP (267) 48
NE_OP (268) 49
G_OP (269) 46
L_OP (270) 45
AND_OP (271) 40
OR_OP (272) 38
NEG_OP (273) 63
NUM (274) 7 62
ASSIGN_OP (275) 34
IF (276) 29 30
ELSE (277) 30
WHILE (278) 31
RETURN (279) 32 33
L_PAR (280) 10 29 30 31 59 65
R_PAR (281) 10 29 30 31 59 65
L_BRACK (282) 7 16 37
R_BRACK (283) 7 16 37
L_BRACE (284) 17
R_BRACE (285) 17
COLON (286) 13 68
S_COLON (287) 6 7 27 28 32 33
IFX (288)


Nonterminals, with rules where they appear

$accept (34)
    on left: 0
program (35)
    on left: 1, on right: 0
declaration_list (36)
    on left: 2 3, on right: 1 2
declaration (37)
    on left: 4 5, on right: 2 3
var_declaration (38)
    on left: 6 7, on right: 4 18
type_specifier (39)
    on left: 8 9, on right: 6 7 10 15 16
fun_declaration (40)
    on left: 10, on right: 5
params (41)
    on left: 11 12, on right: 10
param_list (42)
    on left: 13 14, on right: 11 13
param (43)
    on left: 15 16, on right: 13 14
compound_stmt (44)
    on left: 17, on right: 10 23
local_declarations (45)
    on left: 18 19, on right: 17 18
statement_list (46)
    on left: 20 21, on right: 17 20
statement (47)
    on left: 22 23 24 25 26, on right: 20 29 30 31
expression_stmt (48)
    on left: 27 28, on right: 22
selection_stmt (49)
    on left: 29 30, on right: 24
iteration_stmt (50)
    on left: 31, on right: 25
return_stmt (51)
    on left: 32 33, on right: 26
expression (52)
    on left: 34 35, on right: 27 29 30 31 33 34 37 59 68 69
var (53)
    on left: 36 37, on right: 34 60
logical_or_expression (54)
    on left: 38 39, on right: 35 38
logical_and_expression (55)
    on left: 40 41, on right: 38 39 40
compare_expression (56)
    on left: 42 43, on right: 40 41
relop (57)
    on left: 44 45 46 47 48 49, on right: 42
additive_expression (58)
    on left: 50 51, on right: 42 43 50
addop (59)
    on left: 52 53, on right: 50
term (60)
    on left: 54 55, on right: 50 51 54
mulop (61)
    on left: 56 57, on right: 54
factor (62)
    on left: 58 59 60 61 62, on right: 54 55 58
unop (63)
    on left: 63 64, on right: 58
call (64)
    on left: 65, on right: 61
args (65)
    on left: 66 67, on right: 65
arg_list (66)
    on left: 68 69, on right: 66 68


State 0

    0 $accept: . program $end

    INT   shift, and go to state 1
    VOID  shift, and go to state 2

    program           go to state 3
    declaration_list  go to state 4
    declaration       go to state 5
    var_declaration   go to state 6
    type_specifier    go to state 7
    fun_declaration   go to state 8


State 1

    8 type_specifier: INT .

    $default  reduce using rule 8 (type_specifier)


State 2

    9 type_specifier: VOID .

    $default  reduce using rule 9 (type_specifier)


State 3

    0 $accept: program . $end

    $end  shift, and go to state 9


State 4

    1 program: declaration_list .
    2 declaration_list: declaration_list . declaration

    INT   shift, and go to state 1
    VOID  shift, and go to state 2

    $default  reduce using rule 1 (program)

    declaration      go to state 10
    var_declaration  go to state 6
    type_specifier   go to state 7
    fun_declaration  go to state 8


State 5

    3 declaration_list: declaration .

    $default  reduce using rule 3 (declaration_list)


State 6

    4 declaration: var_declaration .

    $default  reduce using rule 4 (declaration)


State 7

    6 var_declaration: type_specifier . ID S_COLON
    7                | type_specifier . ID L_BRACK NUM R_BRACK S_COLON
   10 fun_declaration: type_specifier . ID L_PAR params R_PAR compound_stmt

    ID  shift, and go to state 11


State 8

    5 declaration: fun_declaration .

    $default  reduce using rule 5 (declaration)


State 9

    0 $accept: program $end .

    $default  accept


State 10

    2 declaration_list: declaration_list declaration .

    $default  reduce using rule 2 (declaration_list)


State 11

    6 var_declaration: type_specifier ID . S_COLON
    7                | type_specifier ID . L_BRACK NUM R_BRACK S_COLON
   10 fun_declaration: type_specifier ID . L_PAR params R_PAR compound_stmt

    L_PAR    shift, and go to state 12
    L_BRACK  shift, and go to state 13
    S_COLON  shift, and go to state 14


State 12

   10 fun_declaration: type_specifier ID L_PAR . params R_PAR compound_stmt

    INT   shift, and go to state 1
    VOID  shift, and go to state 15

    type_specifier  go to state 16
    params          go to state 17
    param_list      go to state 18
    param           go to state 19


State 13

    7 var_declaration: type_specifier ID L_BRACK . NUM R_BRACK S_COLON

    NUM  shift, and go to state 20


State 14

    6 var_declaration: type_specifier ID S_COLON .

    $default  reduce using rule 6 (var_declaration)


State 15

    9 type_specifier: VOID .
   12 params: VOID .

    R_PAR     reduce using rule 12 (params)
    $default  reduce using rule 9 (type_specifier)


State 16

   15 param: type_specifier . ID
   16      | type_specifier . ID L_BRACK R_BRACK

    ID  shift, and go to state 21


State 17

   10 fun_declaration: type_specifier ID L_PAR params . R_PAR compound_stmt

    R_PAR  shift, and go to state 22


State 18

   11 params: param_list .
   13 param_list: param_list . COLON param

    COLON  shift, and go to state 23

    $default  reduce using rule 11 (params)


State 19

   14 param_list: param .

    $default  reduce using rule 14 (param_list)


State 20

    7 var_declaration: type_specifier ID L_BRACK NUM . R_BRACK S_COLON

    R_BRACK  shift, and go to state 24


State 21

   15 param: type_specifier ID .
   16      | type_specifier ID . L_BRACK R_BRACK

    L_BRACK  shift, and go to state 25

    $default  reduce using rule 15 (param)


State 22

   10 fun_declaration: type_specifier ID L_PAR params R_PAR . compound_stmt

    L_BRACE  shift, and go to state 26

    compound_stmt  go to state 27


State 23

   13 param_list: param_list COLON . param

    INT   shift, and go to state 1
    VOID  shift, and go to state 2

    type_specifier  go to state 16
    param           go to state 28


State 24

    7 var_declaration: type_specifier ID L_BRACK NUM R_BRACK . S_COLON

    S_COLON  shift, and go to state 29


State 25

   16 param: type_specifier ID L_BRACK . R_BRACK

    R_BRACK  shift, and go to state 30


State 26

   17 compound_stmt: L_BRACE . local_declarations statement_list R_BRACE

    $default  reduce using rule 19 (local_declarations)

    local_declarations  go to state 31


State 27

   10 fun_declaration: type_specifier ID L_PAR params R_PAR compound_stmt .

    $default  reduce using rule 10 (fun_declaration)


State 28

   13 param_list: param_list COLON param .

    $default  reduce using rule 13 (param_list)


State 29

    7 var_declaration: type_specifier ID L_BRACK NUM R_BRACK S_COLON .

    $default  reduce using rule 7 (var_declaration)


State 30

   16 param: type_specifier ID L_BRACK R_BRACK .

    $default  reduce using rule 16 (param)


State 31

   17 compound_stmt: L_BRACE local_declarations . statement_list R_BRACE
   18 local_declarations: local_declarations . var_declaration

    INT   shift, and go to state 1
    VOID  shift, and go to state 2

    $default  reduce using rule 21 (statement_list)

    var_declaration  go to state 32
    type_specifier   go to state 33
    statement_list   go to state 34


State 32

   18 local_declarations: local_declarations var_declaration .

    $default  reduce using rule 18 (local_declarations)


State 33

    6 var_declaration: type_specifier . ID S_COLON
    7                | type_specifier . ID L_BRACK NUM R_BRACK S_COLON

    ID  shift, and go to state 35


State 34

   17 compound_stmt: L_BRACE local_declarations statement_list . R_BRACE
   20 statement_list: statement_list . statement

    ID       shift, and go to state 36
    SUB_OP   shift, and go to state 37
    NEG_OP   shift, and go to state 38
    NUM      shift, and go to state 39
    IF       shift, and go to state 40
    WHILE    shift, and go to state 41
    RETURN   shift, and go to state 42
    L_PAR    shift, and go to state 43
    L_BRACE  shift, and go to state 26
    R_BRACE  shift, and go to state 44
    S_COLON  shift, and go to state 45

    compound_stmt           go to state 46
    statement               go to state 47
    expression_stmt         go to state 48
    selection_stmt          go to state 49
    iteration_stmt          go to state 50
    return_stmt             go to state 51
    expression              go to state 52
    var                     go to state 53
    logical_or_expression   go to state 54
    logical_and_expression  go to state 55
    compare_expression      go to state 56
    additive_expression     go to state 57
    term                    go to state 58
    factor                  go to state 59
    unop                    go to state 60
    call                    go to state 61


State 35

    6 var_declaration: type_specifier ID . S_COLON
    7                | type_specifier ID . L_BRACK NUM R_BRACK S_COLON

    L_BRACK  shift, and go to state 13
    S_COLON  shift, and go to state 14


State 36

   36 var: ID .
   37    | ID . L_BRACK expression R_BRACK
   65 call: ID . L_PAR args R_PAR

    L_PAR    shift, and go to state 62
    L_BRACK  shift, and go to state 63

    $default  reduce using rule 36 (var)


State 37

   64 unop: SUB_OP .

    $default  reduce using rule 64 (unop)


State 38

   63 unop: NEG_OP .

    $default  reduce using rule 63 (unop)


State 39

   62 factor: NUM .

    $default  reduce using rule 62 (factor)


State 40

   29 selection_stmt: IF . L_PAR expression R_PAR statement
   30               | IF . L_PAR expression R_PAR statement ELSE statement

    L_PAR  shift, and go to state 64


State 41

   31 iteration_stmt: WHILE . L_PAR expression R_PAR statement

    L_PAR  shift, and go to state 65


State 42

   32 return_stmt: RETURN . S_COLON
   33            | RETURN . expression S_COLON

    ID       shift, and go to state 36
    SUB_OP   shift, and go to state 37
    NEG_OP   shift, and go to state 38
    NUM      shift, and go to state 39
    L_PAR    shift, and go to state 43
    S_COLON  shift, and go to state 66

    expression              go to state 67
    var                     go to state 53
    logical_or_expression   go to state 54
    logical_and_expression  go to state 55
    compare_expression      go to state 56
    additive_expression     go to state 57
    term                    go to state 58
    factor                  go to state 59
    unop                    go to state 60
    call                    go to state 61


State 43

   59 factor: L_PAR . expression R_PAR

    ID      shift, and go to state 36
    SUB_OP  shift, and go to state 37
    NEG_OP  shift, and go to state 38
    NUM     shift, and go to state 39
    L_PAR   shift, and go to state 43

    expression              go to state 68
    var                     go to state 53
    logical_or_expression   go to state 54
    logical_and_expression  go to state 55
    compare_expression      go to state 56
    additive_expression     go to state 57
    term                    go to state 58
    factor                  go to state 59
    unop                    go to state 60
    call                    go to state 61


State 44

   17 compound_stmt: L_BRACE local_declarations statement_list R_BRACE .

    $default  reduce using rule 17 (compound_stmt)


State 45

   28 expression_stmt: S_COLON .

    $default  reduce using rule 28 (expression_stmt)


State 46

   23 statement: compound_stmt .

    $default  reduce using rule 23 (statement)


State 47

   20 statement_list: statement_list statement .

    $default  reduce using rule 20 (statement_list)


State 48

   22 statement: expression_stmt .

    $default  reduce using rule 22 (statement)


State 49

   24 statement: selection_stmt .

    $default  reduce using rule 24 (statement)


State 50

   25 statement: iteration_stmt .

    $default  reduce using rule 25 (statement)


State 51

   26 statement: return_stmt .

    $default  reduce using rule 26 (statement)


State 52

   27 expression_stmt: expression . S_COLON

    S_COLON  shift, and go to state 69


State 53

   34 expression: var . ASSIGN_OP expression
   60 factor: var .

    ASSIGN_OP  shift, and go to state 70

    $default  reduce using rule 60 (factor)


State 54

   35 expression: logical_or_expression .
   38 logical_or_expression: logical_or_expression . OR_OP logical_and_expression

    OR_OP  shift, and go to state 71

    $default  reduce using rule 35 (expression)


State 55

   39 logical_or_expression: logical_and_expression .
   40 logical_and_expression: logical_and_expression . AND_OP compare_expression

    AND_OP  shift, and go to state 72

    $default  reduce using rule 39 (logical_or_expression)


State 56

   41 logical_and_expression: compare_expression .

    $default  reduce using rule 41 (logical_and_expression)


State 57

   42 compare_expression: additive_expression . relop additive_expression
   43                   | additive_expression .
   50 additive_expression: additive_expression . addop term

    ADD_OP  shift, and go to state 73
    SUB_OP  shift, and go to state 74
    LE_OP   shift, and go to state 75
    GE_OP   shift, and go to state 76
    EQ_OP   shift, and go to state 77
    NE_OP   shift, and go to state 78
    G_OP    shift, and go to state 79
    L_OP    shift, and go to state 80

    $default  reduce using rule 43 (compare_expression)

    relop  go to state 81
    addop  go to state 82


State 58

   51 additive_expression: term .
   54 term: term . mulop factor

    MUL_OP  shift, and go to state 83
    DIV_OP  shift, and go to state 84

    $default  reduce using rule 51 (additive_expression)

    mulop  go to state 85


State 59

   55 term: factor .

    $default  reduce using rule 55 (term)


State 60

   58 factor: unop . factor

    ID      shift, and go to state 36
    SUB_OP  shift, and go to state 37
    NEG_OP  shift, and go to state 38
    NUM     shift, and go to state 39
    L_PAR   shift, and go to state 43

    var     go to state 86
    factor  go to state 87
    unop    go to state 60
    call    go to state 61


State 61

   61 factor: call .

    $default  reduce using rule 61 (factor)


State 62

   65 call: ID L_PAR . args R_PAR

    ID      shift, and go to state 36
    SUB_OP  shift, and go to state 37
    NEG_OP  shift, and go to state 38
    NUM     shift, and go to state 39
    L_PAR   shift, and go to state 43

    $default  reduce using rule 67 (args)

    expression              go to state 88
    var                     go to state 53
    logical_or_expression   go to state 54
    logical_and_expression  go to state 55
    compare_expression      go to state 56
    additive_expression     go to state 57
    term                    go to state 58
    factor                  go to state 59
    unop                    go to state 60
    call                    go to state 61
    args                    go to state 89
    arg_list                go to state 90


State 63

   37 var: ID L_BRACK . expression R_BRACK

    ID      shift, and go to state 36
    SUB_OP  shift, and go to state 37
    NEG_OP  shift, and go to state 38
    NUM     shift, and go to state 39
    L_PAR   shift, and go to state 43

    expression              go to state 91
    var                     go to state 53
    logical_or_expression   go to state 54
    logical_and_expression  go to state 55
    compare_expression      go to state 56
    additive_expression     go to state 57
    term                    go to state 58
    factor                  go to state 59
    unop                    go to state 60
    call                    go to state 61


State 64

   29 selection_stmt: IF L_PAR . expression R_PAR statement
   30               | IF L_PAR . expression R_PAR statement ELSE statement

    ID      shift, and go to state 36
    SUB_OP  shift, and go to state 37
    NEG_OP  shift, and go to state 38
    NUM     shift, and go to state 39
    L_PAR   shift, and go to state 43

    expression              go to state 92
    var                     go to state 53
    logical_or_expression   go to state 54
    logical_and_expression  go to state 55
    compare_expression      go to state 56
    additive_expression     go to state 57
    term                    go to state 58
    factor                  go to state 59
    unop                    go to state 60
    call                    go to state 61


State 65

   31 iteration_stmt: WHILE L_PAR . expression R_PAR statement

    ID      shift, and go to state 36
    SUB_OP  shift, and go to state 37
    NEG_OP  shift, and go to state 38
    NUM     shift, and go to state 39
    L_PAR   shift, and go to state 43

    expression              go to state 93
    var                     go to state 53
    logical_or_expression   go to state 54
    logical_and_expression  go to state 55
    compare_expression      go to state 56
    additive_expression     go to state 57
    term                    go to state 58
    factor                  go to state 59
    unop                    go to state 60
    call                    go to state 61


State 66

   32 return_stmt: RETURN S_COLON .

    $default  reduce using rule 32 (return_stmt)


State 67

   33 return_stmt: RETURN expression . S_COLON

    S_COLON  shift, and go to state 94


State 68

   59 factor: L_PAR expression . R_PAR

    R_PAR  shift, and go to state 95


State 69

   27 expression_stmt: expression S_COLON .

    $default  reduce using rule 27 (expression_stmt)


State 70

   34 expression: var ASSIGN_OP . expression

    ID      shift, and go to state 36
    SUB_OP  shift, and go to state 37
    NEG_OP  shift, and go to state 38
    NUM     shift, and go to state 39
    L_PAR   shift, and go to state 43

    expression              go to state 96
    var                     go to state 53
    logical_or_expression   go to state 54
    logical_and_expression  go to state 55
    compare_expression      go to state 56
    additive_expression     go to state 57
    term                    go to state 58
    factor                  go to state 59
    unop                    go to state 60
    call                    go to state 61


State 71

   38 logical_or_expression: logical_or_expression OR_OP . logical_and_expression

    ID      shift, and go to state 36
    SUB_OP  shift, and go to state 37
    NEG_OP  shift, and go to state 38
    NUM     shift, and go to state 39
    L_PAR   shift, and go to state 43

    var                     go to state 86
    logical_and_expression  go to state 97
    compare_expression      go to state 56
    additive_expression     go to state 57
    term                    go to state 58
    factor                  go to state 59
    unop                    go to state 60
    call                    go to state 61


State 72

   40 logical_and_expression: logical_and_expression AND_OP . compare_expression

    ID      shift, and go to state 36
    SUB_OP  shift, and go to state 37
    NEG_OP  shift, and go to state 38
    NUM     shift, and go to state 39
    L_PAR   shift, and go to state 43

    var                  go to state 86
    compare_expression   go to state 98
    additive_expression  go to state 57
    term                 go to state 58
    factor               go to state 59
    unop                 go to state 60
    call                 go to state 61


State 73

   52 addop: ADD_OP .

    $default  reduce using rule 52 (addop)


State 74

   53 addop: SUB_OP .

    $default  reduce using rule 53 (addop)


State 75

   44 relop: LE_OP .

    $default  reduce using rule 44 (relop)


State 76

   47 relop: GE_OP .

    $default  reduce using rule 47 (relop)


State 77

   48 relop: EQ_OP .

    $default  reduce using rule 48 (relop)


State 78

   49 relop: NE_OP .

    $default  reduce using rule 49 (relop)


State 79

   46 relop: G_OP .

    $default  reduce using rule 46 (relop)


State 80

   45 relop: L_OP .

    $default  reduce using rule 45 (relop)


State 81

   42 compare_expression: additive_expression relop . additive_expression

    ID      shift, and go to state 36
    SUB_OP  shift, and go to state 37
    NEG_OP  shift, and go to state 38
    NUM     shift, and go to state 39
    L_PAR   shift, and go to state 43

    var                  go to state 86
    additive_expression  go to state 99
    term                 go to state 58
    factor               go to state 59
    unop                 go to state 60
    call                 go to state 61


State 82

   50 additive_expression: additive_expression addop . term

    ID      shift, and go to state 36
    SUB_OP  shift, and go to state 37
    NEG_OP  shift, and go to state 38
    NUM     shift, and go to state 39
    L_PAR   shift, and go to state 43

    var     go to state 86
    term    go to state 100
    factor  go to state 59
    unop    go to state 60
    call    go to state 61


State 83

   56 mulop: MUL_OP .

    $default  reduce using rule 56 (mulop)


State 84

   57 mulop: DIV_OP .

    $default  reduce using rule 57 (mulop)


State 85

   54 term: term mulop . factor

    ID      shift, and go to state 36
    SUB_OP  shift, and go to state 37
    NEG_OP  shift, and go to state 38
    NUM     shift, and go to state 39
    L_PAR   shift, and go to state 43

    var     go to state 86
    factor  go to state 101
    unop    go to state 60
    call    go to state 61


State 86

   60 factor: var .

    $default  reduce using rule 60 (factor)


State 87

   58 factor: unop factor .

    $default  reduce using rule 58 (factor)


State 88

   69 arg_list: expression .

    $default  reduce using rule 69 (arg_list)


State 89

   65 call: ID L_PAR args . R_PAR

    R_PAR  shift, and go to state 102


State 90

   66 args: arg_list .
   68 arg_list: arg_list . COLON expression

    COLON  shift, and go to state 103

    $default  reduce using rule 66 (args)


State 91

   37 var: ID L_BRACK expression . R_BRACK

    R_BRACK  shift, and go to state 104


State 92

   29 selection_stmt: IF L_PAR expression . R_PAR statement
   30               | IF L_PAR expression . R_PAR statement ELSE statement

    R_PAR  shift, and go to state 105


State 93

   31 iteration_stmt: WHILE L_PAR expression . R_PAR statement

    R_PAR  shift, and go to state 106


State 94

   33 return_stmt: RETURN expression S_COLON .

    $default  reduce using rule 33 (return_stmt)


State 95

   59 factor: L_PAR expression R_PAR .

    $default  reduce using rule 59 (factor)


State 96

   34 expression: var ASSIGN_OP expression .

    $default  reduce using rule 34 (expression)


State 97

   38 logical_or_expression: logical_or_expression OR_OP logical_and_expression .
   40 logical_and_expression: logical_and_expression . AND_OP compare_expression

    AND_OP  shift, and go to state 72

    $default  reduce using rule 38 (logical_or_expression)


State 98

   40 logical_and_expression: logical_and_expression AND_OP compare_expression .

    $default  reduce using rule 40 (logical_and_expression)


State 99

   42 compare_expression: additive_expression relop additive_expression .
   50 additive_expression: additive_expression . addop term

    ADD_OP  shift, and go to state 73
    SUB_OP  shift, and go to state 74

    $default  reduce using rule 42 (compare_expression)

    addop  go to state 82


State 100

   50 additive_expression: additive_expression addop term .
   54 term: term . mulop factor

    MUL_OP  shift, and go to state 83
    DIV_OP  shift, and go to state 84

    $default  reduce using rule 50 (additive_expression)

    mulop  go to state 85


State 101

   54 term: term mulop factor .

    $default  reduce using rule 54 (term)


State 102

   65 call: ID L_PAR args R_PAR .

    $default  reduce using rule 65 (call)


State 103

   68 arg_list: arg_list COLON . expression

    ID      shift, and go to state 36
    SUB_OP  shift, and go to state 37
    NEG_OP  shift, and go to state 38
    NUM     shift, and go to state 39
    L_PAR   shift, and go to state 43

    expression              go to state 107
    var                     go to state 53
    logical_or_expression   go to state 54
    logical_and_expression  go to state 55
    compare_expression      go to state 56
    additive_expression     go to state 57
    term                    go to state 58
    factor                  go to state 59
    unop                    go to state 60
    call                    go to state 61


State 104

   37 var: ID L_BRACK expression R_BRACK .

    $default  reduce using rule 37 (var)


State 105

   29 selection_stmt: IF L_PAR expression R_PAR . statement
   30               | IF L_PAR expression R_PAR . statement ELSE statement

    ID       shift, and go to state 36
    SUB_OP   shift, and go to state 37
    NEG_OP   shift, and go to state 38
    NUM      shift, and go to state 39
    IF       shift, and go to state 40
    WHILE    shift, and go to state 41
    RETURN   shift, and go to state 42
    L_PAR    shift, and go to state 43
    L_BRACE  shift, and go to state 26
    S_COLON  shift, and go to state 45

    compound_stmt           go to state 46
    statement               go to state 108
    expression_stmt         go to state 48
    selection_stmt          go to state 49
    iteration_stmt          go to state 50
    return_stmt             go to state 51
    expression              go to state 52
    var                     go to state 53
    logical_or_expression   go to state 54
    logical_and_expression  go to state 55
    compare_expression      go to state 56
    additive_expression     go to state 57
    term                    go to state 58
    factor                  go to state 59
    unop                    go to state 60
    call                    go to state 61


State 106

   31 iteration_stmt: WHILE L_PAR expression R_PAR . statement

    ID       shift, and go to state 36
    SUB_OP   shift, and go to state 37
    NEG_OP   shift, and go to state 38
    NUM      shift, and go to state 39
    IF       shift, and go to state 40
    WHILE    shift, and go to state 41
    RETURN   shift, and go to state 42
    L_PAR    shift, and go to state 43
    L_BRACE  shift, and go to state 26
    S_COLON  shift, and go to state 45

    compound_stmt           go to state 46
    statement               go to state 109
    expression_stmt         go to state 48
    selection_stmt          go to state 49
    iteration_stmt          go to state 50
    return_stmt             go to state 51
    expression              go to state 52
    var                     go to state 53
    logical_or_expression   go to state 54
    logical_and_expression  go to state 55
    compare_expression      go to state 56
    additive_expression     go to state 57
    term                    go to state 58
    factor                  go to state 59
    unop                    go to state 60
    call                    go to state 61


State 107

   68 arg_list: arg_list COLON expression .

    $default  reduce using rule 68 (arg_list)


State 108

   29 selection_stmt: IF L_PAR expression R_PAR statement .
   30               | IF L_PAR expression R_PAR statement . ELSE statement

    ELSE  shift, and go to state 110

    $default  reduce using rule 29 (selection_stmt)


State 109

   31 iteration_stmt: WHILE L_PAR expression R_PAR statement .

    $default  reduce using rule 31 (iteration_stmt)


State 110

   30 selection_stmt: IF L_PAR expression R_PAR statement ELSE . statement

    ID       shift, and go to state 36
    SUB_OP   shift, and go to state 37
    NEG_OP   shift, and go to state 38
    NUM      shift, and go to state 39
    IF       shift, and go to state 40
    WHILE    shift, and go to state 41
    RETURN   shift, and go to state 42
    L_PAR    shift, and go to state 43
    L_BRACE  shift, and go to state 26
    S_COLON  shift, and go to state 45

    compound_stmt           go to state 46
    statement               go to state 111
    expression_stmt         go to state 48
    selection_stmt          go to state 49
    iteration_stmt          go to state 50
    return_stmt             go to state 51
    expression              go to state 52
    var                     go to state 53
    logical_or_expression   go to state 54
    logical_and_expression  go to state 55
    compare_expression      go to state 56
    additive_expression     go to state 57
    term                    go to state 58
    factor                  go to state 59
    unop                    go to state 60
    call                    go to state 61


State 111

   30 selection_stmt: IF L_PAR expression R_PAR statement ELSE statement .

    $default  reduce using rule 30 (selection_stmt)
